<svg xmlns="http://www.w3.org/2000/svg" xmlns:xlink="http://www.w3.org/1999/xlink" width="1008.265" height="177.768" viewBox="0 0 1008.265 177.768">
  <defs>
    <linearGradient id="linear-gradient" x1="-0.734" y1="0.502" x2="1.535" y2="0.498" gradientUnits="objectBoundingBox">
      <stop offset="0" stop-color="#fff"/>
      <stop offset="1"/>
    </linearGradient>
    <linearGradient id="linear-gradient-2" x1="0.142" y1="0.494" x2="0.927" y2="0.507" gradientUnits="objectBoundingBox">
      <stop offset="0" stop-color="#05abe9"/>
      <stop offset="1" stop-color="#0054a4"/>
    </linearGradient>
    <linearGradient id="linear-gradient-3" x1="0" y1="0.5" x2="1" y2="0.5" xlink:href="#linear-gradient-2"/>
    <linearGradient id="linear-gradient-7" x1="0.5" y1="0.235" x2="0.5" y2="0.948" gradientUnits="objectBoundingBox">
      <stop offset="0" stop-color="#78808d"/>
      <stop offset="1" stop-color="#42464f"/>
    </linearGradient>
    <linearGradient id="linear-gradient-8" x1="0.5" y1="-0.052" x2="0.5" y2="0.929" xlink:href="#linear-gradient-7"/>
    <linearGradient id="linear-gradient-11" x1="0.5" y1="-0.038" x2="0.5" y2="0.991" gradientUnits="objectBoundingBox">
      <stop offset="0" stop-color="#00aeea"/>
      <stop offset="1" stop-color="#00509f"/>
    </linearGradient>
    <linearGradient id="linear-gradient-12" x1="0.5" y1="-0.427" x2="0.5" y2="0.988" xlink:href="#linear-gradient-11"/>
    <linearGradient id="linear-gradient-16" x1="0" y1="0.5" x2="1" y2="0.5" xlink:href="#linear-gradient-7"/>
    <linearGradient id="linear-gradient-17" x1="0.5" y1="-0.001" x2="0.5" y2="1.041" xlink:href="#linear-gradient-11"/>
    <linearGradient id="linear-gradient-18" x1="0.5" y1="-0.377" x2="0.5" y2="1.063" xlink:href="#linear-gradient-11"/>
  </defs>
  <g id="Group_3" data-name="Group 3" transform="translate(-20.572 -46.821)">
    <g id="Layer_2" data-name="Layer 2" transform="translate(20.572 79.342)">
      <rect id="Rectangle_1" data-name="Rectangle 1" width="19.577" height="19.577" transform="translate(167.722 100.465)" fill="url(#linear-gradient)"/>
      <rect id="Rectangle_2" data-name="Rectangle 2" width="11.42" height="11.42" transform="translate(189.233 88.123)" fill="url(#linear-gradient-2)"/>
      <path id="Path_1" data-name="Path 1" d="M260.79,115.389" transform="translate(-172.875 -60.141)" fill="#03a8ea"/>
      <path id="Path_2" data-name="Path 2" d="M352.779,119.369V65.951H182.121v88.687H274.06v48.545h77.288v-10.2h-67.1V144.446H192.313v-68.3H342.587v53.418h86.664v63.621h-35.28V187.27H371.129v22.842h22.842v-6.728h45.472V119.369ZM387.847,204H377.242V193.394h10.605Z" transform="translate(-182.121 -65.951)" fill="url(#linear-gradient-3)"/>
      <path id="Path_3" data-name="Path 3" d="M313.284,101.613a5.034,5.034,0,0,0-4.917-4.325h-.056a1.086,1.086,0,0,0-.19.011h-.011a4.691,4.691,0,0,0-1.2.19l-12.639-8.18-5.23-3.386H191.216v6.705h95.839l16.3,10.549a5.012,5.012,0,0,0,4.951,4.168c.112,0,.235,0,.346-.011h.011a.774.774,0,0,0,.223-.034,4.155,4.155,0,0,0,.648-.123,4.951,4.951,0,0,0,2.939-2.067,1.032,1.032,0,0,0,.168-.279,4.818,4.818,0,0,0,.682-2.313,1.212,1.212,0,0,0,.011-.2v-.056A4.107,4.107,0,0,0,313.284,101.613Zm-1.162.849a3.8,3.8,0,0,1-3.364,3.632.977.977,0,0,1-.179.022,2.153,2.153,0,0,1-.268.011,2.861,2.861,0,0,1-.436-.034,2.256,2.256,0,0,1-.548-.1,3.815,3.815,0,0,1-2.28-1.721,3.746,3.746,0,0,1-.413-.972,3.6,3.6,0,0,1-.134-.983,2.149,2.149,0,0,1,.011-.268.556.556,0,0,1,.034-.179,3.772,3.772,0,0,1,3.621-3.353.636.636,0,0,1,.145-.011h.179a3.584,3.584,0,0,1,1.051.212,3.755,3.755,0,0,1,2.168,1.877,3.4,3.4,0,0,1,.212.5,3.7,3.7,0,0,1,.2,1.173Z" transform="translate(-181.052 -63.604)" fill="url(#linear-gradient-3)"/>
      <path id="Path_4" data-name="Path 4" d="M262.414,117.181a5,5,0,0,0-6.3,0,5.634,5.634,0,0,0-.592.559h-64.3v6.705H255.53a4.994,4.994,0,0,0,7.465,0,3.5,3.5,0,0,0,.447-.559,5,5,0,0,0,.838-2.414v-.011c.011-.123.011-.246.011-.369A4.99,4.99,0,0,0,262.414,117.181Zm.659,3.911a.687.687,0,0,1-.011.156,3.782,3.782,0,0,1-3.364,3.621.507.507,0,0,1-.179.034h-.257a3.8,3.8,0,0,1-3.811-3.811v-.257a.506.506,0,0,1,.034-.179,3.791,3.791,0,0,1,3.621-3.364h.19a3.829,3.829,0,0,1,3.777,3.766Z" transform="translate(-181.052 -60.061)" fill="url(#linear-gradient-3)"/>
      <path id="Path_5" data-name="Path 5" d="M290.777,115.082a5.034,5.034,0,0,0-4.917-4.325H285.8a1.085,1.085,0,0,0-.19.011H285.6a4.286,4.286,0,0,0-1.006.145l-9.924-6.415-5.23-3.386H191.216v6.705h76.238l13.377,8.65a.978.978,0,0,0,.022.179,5.013,5.013,0,0,0,4.951,4.168c.112,0,.235,0,.346-.011h.011a.775.775,0,0,0,.223-.034,4.152,4.152,0,0,0,.648-.123,4.951,4.951,0,0,0,2.939-2.067,1.033,1.033,0,0,0,.168-.279,4.82,4.82,0,0,0,.682-2.313,1.215,1.215,0,0,0,.011-.2v-.056A4.107,4.107,0,0,0,290.777,115.082Zm-1.162.849a3.8,3.8,0,0,1-3.364,3.632.978.978,0,0,1-.179.022,2.155,2.155,0,0,1-.268.011,2.865,2.865,0,0,1-.436-.034,2.254,2.254,0,0,1-.548-.1,3.815,3.815,0,0,1-2.28-1.721c-.045-.078-.089-.156-.134-.246a3.76,3.76,0,0,1-.279-.726,3.6,3.6,0,0,1-.134-.983,2.172,2.172,0,0,1,.011-.268.555.555,0,0,1,.034-.179,3.772,3.772,0,0,1,3.621-3.353.636.636,0,0,1,.145-.011h.179a3.238,3.238,0,0,1,.324.045,2.555,2.555,0,0,1,.726.168,3.755,3.755,0,0,1,2.168,1.877,3.393,3.393,0,0,1,.212.5,3.693,3.693,0,0,1,.2,1.173Z" transform="translate(-181.052 -61.818)" fill="url(#linear-gradient-3)"/>
    </g>
    <g id="Layer_4" data-name="Layer 4" transform="translate(299.041 46.821)">
      <g id="Group_1" data-name="Group 1" transform="translate(0.95 140.869)">
        <path id="Path_6" data-name="Path 6" d="M445.85,170.611a6.9,6.9,0,0,1,3.038,2.3,9.171,9.171,0,0,1,1.53,3.73,26.913,26.913,0,0,1,.426,5.035v4.564a25.2,25.2,0,0,1-.549,5.749,8.437,8.437,0,0,1-1.754,3.652,6.374,6.374,0,0,1-3.1,1.914,16.429,16.429,0,0,1-4.547.551H427.89v-28.3H440.9A13.166,13.166,0,0,1,445.85,170.611Zm-1.386,24.153a4.212,4.212,0,0,0,2.12-1.567,6.773,6.773,0,0,0,1.04-2.794,25.71,25.71,0,0,0,.285-4.159v-4.564a20.46,20.46,0,0,0-.366-4.18,6.691,6.691,0,0,0-1.2-2.794,4.782,4.782,0,0,0-2.161-1.546,9.5,9.5,0,0,0-3.281-.49H430.827v22.586H440.9A10.7,10.7,0,0,0,444.463,194.765Z" transform="translate(-427.89 -169.815)" fill="#4f5560"/>
        <path id="Path_7" data-name="Path 7" d="M454.777,172.753H451.84v-2.938h2.937Zm0,25.357H451.84V177.968h2.937Z" transform="translate(-417.716 -169.815)" fill="#4f5560"/>
        <path id="Path_8" data-name="Path 8" d="M463.469,189.276v.245q0,3.71,4.4,3.709h4.77a5.714,5.714,0,0,0,2.976-.631c.681-.42,1.02-1.3,1.02-2.632a3.339,3.339,0,0,0-.754-2.426,4.07,4.07,0,0,0-2.794-.792l-6.766-.165a6.118,6.118,0,0,1-3.915-1.305,4.412,4.412,0,0,1-1.428-3.546v-.815a6.148,6.148,0,0,1,.368-2.142,4.553,4.553,0,0,1,1.121-1.73,5.284,5.284,0,0,1,1.935-1.164,8.157,8.157,0,0,1,2.774-.43h4.484a11.375,11.375,0,0,1,3.528.469,6,6,0,0,1,2.261,1.288,4.633,4.633,0,0,1,1.224,1.913,7.305,7.305,0,0,1,.368,2.325v.406h-2.528v-.368a3.281,3.281,0,0,0-1.04-2.566q-1.039-.938-3.854-.936h-4.484a5.588,5.588,0,0,0-1.815.245,2.844,2.844,0,0,0-1.12.653,2.04,2.04,0,0,0-.55.976,4.94,4.94,0,0,0-.143,1.221,3,3,0,0,0,.734,2.348,4.387,4.387,0,0,0,2.69.67l6.238.167a6.6,6.6,0,0,1,4.525,1.485,5.091,5.091,0,0,1,1.469,3.853v.735a5.125,5.125,0,0,1-1.569,3.894q-1.571,1.49-5.282,1.487h-4.4q-3.794,0-5.382-1.65a6.053,6.053,0,0,1-1.591-4.384v-.406Z" transform="translate(-413.85 -167.421)" fill="#4f5560"/>
        <path id="Path_9" data-name="Path 9" d="M495.8,181.449a4.4,4.4,0,0,0-.714-1.852,3.609,3.609,0,0,0-1.592-1.244,7.177,7.177,0,0,0-2.791-.45h-1.509a6.13,6.13,0,0,0-4.586,1.572,6.011,6.011,0,0,0-1.529,4.384V195.68h-2.935V175.537h2.894v2.448a6.266,6.266,0,0,1,.754-.858,4.652,4.652,0,0,1,1.183-.792,7.787,7.787,0,0,1,1.752-.57,11.863,11.863,0,0,1,2.508-.228H490.7a11.1,11.1,0,0,1,4.361.714,5.723,5.723,0,0,1,3.588,4.507,17.853,17.853,0,0,1,.246,2.976H495.96A15.367,15.367,0,0,0,495.8,181.449Z" transform="translate(-405.693 -167.384)" fill="#4f5560"/>
        <path id="Path_10" data-name="Path 10" d="M501.748,193.762q-1.832-1.958-1.834-5.95V175.537h2.935v12.48a5.3,5.3,0,0,0,1.143,3.81q1.141,1.163,4.035,1.16h1.754a6.63,6.63,0,0,0,4.3-1.221,4.571,4.571,0,0,0,1.487-3.749v-12.48H518.5V195.68h-2.854v-2.325a10.011,10.011,0,0,1-.754.838,3.968,3.968,0,0,1-1.1.752,7.752,7.752,0,0,1-1.609.551,9.989,9.989,0,0,1-2.284.224h-1.835Q503.582,195.719,501.748,193.762Z" transform="translate(-397.293 -167.384)" fill="#4f5560"/>
        <path id="Path_11" data-name="Path 11" d="M537.584,177.755a9.839,9.839,0,0,1,1.916,6.463v2.771q0,4.283-1.958,6.507t-6.36,2.22h-2.364a12.084,12.084,0,0,1-2.284-.184,6.739,6.739,0,0,1-1.61-.507,3.837,3.837,0,0,1-1.1-.775,4.456,4.456,0,0,1-.714-.982v10.6h-2.935v-28.3h2.935V177.7a9.749,9.749,0,0,1,.714-.8,4.1,4.1,0,0,1,1.019-.714,6.316,6.316,0,0,1,1.591-.53,12.207,12.207,0,0,1,2.465-.207h2.365Q535.668,175.451,537.584,177.755Zm-14.312,11.827a4.482,4.482,0,0,0,.9,1.958,4.159,4.159,0,0,0,1.754,1.221,7.856,7.856,0,0,0,2.814.429h1.956q3.138,0,4.5-1.489a6.815,6.815,0,0,0,1.366-4.712V184.3q0-3.546-1.448-4.951a5.741,5.741,0,0,0-4.179-1.411h-2.119a5.656,5.656,0,0,0-4.364,1.55q-1.425,1.549-1.425,4.974v2.526A12.675,12.675,0,0,0,523.272,189.582Z" transform="translate(-388.687 -167.421)" fill="#4f5560"/>
        <path id="Path_12" data-name="Path 12" d="M550.256,194.307a2.562,2.562,0,0,0,2.264-.819,4.028,4.028,0,0,0,.55-2.281h2.935a8.28,8.28,0,0,1-.366,2.632,4.337,4.337,0,0,1-1.062,1.751,3.984,3.984,0,0,1-1.67.96,7.947,7.947,0,0,1-2.2.284h-3.056a6.755,6.755,0,0,1-2.2-.346,4.528,4.528,0,0,1-1.774-1.1,5.123,5.123,0,0,1-1.181-1.935,8.562,8.562,0,0,1-.43-2.9V179.385h-2.486v-2.694h2.486v-3.87H545v3.87h9.663v2.694H545v11.454a3.62,3.62,0,0,0,.816,2.649,3.239,3.239,0,0,0,2.4.819Z" transform="translate(-380.445 -168.538)" fill="#4f5560"/>
        <path id="Path_13" data-name="Path 13" d="M560.967,172.753H558.03v-2.938h2.937Zm0,25.357H558.03V177.968h2.937Z" transform="translate(-372.605 -169.815)" fill="#4f5560"/>
        <path id="Path_14" data-name="Path 14" d="M575.544,191.766l6.115-16.229h3.058l-7.5,20.143h-3.344l-7.542-20.143h3.1Z" transform="translate(-369.079 -167.384)" fill="#4f5560"/>
        <path id="Path_15" data-name="Path 15" d="M588.478,195.331a5.1,5.1,0,0,1-2.3-1.349,5.925,5.925,0,0,1-1.408-2.566,14.752,14.752,0,0,1-.469-4.059V183.85q0-4.4,1.815-6.4t5.523-2h2.61q3.832,0,5.728,1.835a6.767,6.767,0,0,1,1.9,5.1v3.836H586.989v2.365a4.815,4.815,0,0,0,1.121,3.546,5.016,5.016,0,0,0,3.608,1.1h2.61a6.257,6.257,0,0,0,3.75-.836,2.993,2.993,0,0,0,1.063-2.5v-.613h2.73v.853a5.422,5.422,0,0,1-.591,2.632,4.743,4.743,0,0,1-1.61,1.734,7.177,7.177,0,0,1-2.405.938,15.147,15.147,0,0,1-3.018.284h-2.61A11.642,11.642,0,0,1,588.478,195.331Zm3.24-17.31a7.454,7.454,0,0,0-2.342.308,2.905,2.905,0,0,0-1.449,1,4.177,4.177,0,0,0-.734,1.774,14.794,14.794,0,0,0-.2,2.67h12.152a20.208,20.208,0,0,0-.145-2.632,3.931,3.931,0,0,0-.63-1.772,2.838,2.838,0,0,0-1.448-1.02,8.364,8.364,0,0,0-2.59-.325Z" transform="translate(-361.445 -167.421)" fill="#4f5560"/>
        <path id="Path_16" data-name="Path 16" d="M634.507,172.67h-10.15v25.44h-2.938V172.67h-10.19v-2.855h23.279Z" transform="translate(-350.005 -169.815)" fill="#4f5560"/>
        <path id="Path_17" data-name="Path 17" d="M632.718,195.331a5.111,5.111,0,0,1-2.3-1.349,5.907,5.907,0,0,1-1.4-2.566,14.806,14.806,0,0,1-.469-4.059V183.85q0-4.4,1.812-6.4t5.525-2h2.61c2.553,0,4.467.614,5.728,1.835a6.767,6.767,0,0,1,1.9,5.1v3.836H631.233v2.365a4.8,4.8,0,0,0,1.121,3.546,5,5,0,0,0,3.608,1.1h2.609a6.258,6.258,0,0,0,3.749-.836,2.987,2.987,0,0,0,1.06-2.5v-.613h2.733v.853a5.423,5.423,0,0,1-.591,2.632,4.759,4.759,0,0,1-1.611,1.734,7.157,7.157,0,0,1-2.4.938,15.159,15.159,0,0,1-3.018.284h-2.61A11.646,11.646,0,0,1,632.718,195.331Zm3.244-17.31a7.464,7.464,0,0,0-2.347.308,2.891,2.891,0,0,0-1.446,1,4.161,4.161,0,0,0-.735,1.774,14.829,14.829,0,0,0-.2,2.67H643.38a21.375,21.375,0,0,0-.14-2.632,3.933,3.933,0,0,0-.635-1.772,2.807,2.807,0,0,0-1.445-1.02,8.36,8.36,0,0,0-2.589-.325Z" transform="translate(-342.651 -167.421)" fill="#4f5560"/>
        <path id="Path_18" data-name="Path 18" d="M662.707,187.887h2.728v1.02a11.267,11.267,0,0,1-.285,2.61,5.015,5.015,0,0,1-1.077,2.159,5.375,5.375,0,0,1-2.2,1.489,10.145,10.145,0,0,1-3.652.551h-2.974a10.945,10.945,0,0,1-3.222-.429,5.213,5.213,0,0,1-2.325-1.428,6.285,6.285,0,0,1-1.406-2.689,16.172,16.172,0,0,1-.467-4.22v-2.689a16.184,16.184,0,0,1,.467-4.222,6.2,6.2,0,0,1,1.451-2.71,5.379,5.379,0,0,1,2.465-1.449,12.852,12.852,0,0,1,3.525-.43h1.956a13.928,13.928,0,0,1,3.246.351,6.287,6.287,0,0,1,2.444,1.121,4.939,4.939,0,0,1,1.527,2.015,7.73,7.73,0,0,1,.53,3.038v.614h-2.728v-.938a3.394,3.394,0,0,0-1.081-2.815,6.437,6.437,0,0,0-3.853-.853h-2.12a8.611,8.611,0,0,0-2.509.306,2.934,2.934,0,0,0-1.567,1.077,5.108,5.108,0,0,0-.819,2.08,18.67,18.67,0,0,0-.241,3.3v1.8a15.685,15.685,0,0,0,.285,3.3,5,5,0,0,0,.876,2.059,3.022,3.022,0,0,0,1.489,1.042,7.232,7.232,0,0,0,2.159.285h2.285a12.364,12.364,0,0,0,2.526-.207,3.158,3.158,0,0,0,1.55-.731,2.832,2.832,0,0,0,.794-1.449,10.168,10.168,0,0,0,.227-2.342Z" transform="translate(-334.459 -167.421)" fill="#4f5560"/>
        <path id="Path_19" data-name="Path 19" d="M681.854,178.521a6.445,6.445,0,0,1,2.632,1.55,5.617,5.617,0,0,1,1.385,2.364,10.474,10.474,0,0,1,.412,2.995V198.11h-2.939V185.552a5.427,5.427,0,0,0-1.244-4.015q-1.24-1.2-4.383-1.2h-1.261q-3.3,0-4.75,1.428a5.354,5.354,0,0,0-1.451,4V198.11H667.2v-28.3h2.934V180.5a3.94,3.94,0,0,1,.7-.9,4.416,4.416,0,0,1,1.183-.815,7.369,7.369,0,0,1,1.812-.591,12.924,12.924,0,0,1,2.632-.228h1.261A13.171,13.171,0,0,1,681.854,178.521Z" transform="translate(-326.229 -169.815)" fill="#4f5560"/>
        <path id="Path_20" data-name="Path 20" d="M704.732,177.6a8.1,8.1,0,0,1,1.979,5.85V195.68h-2.938V183.45a5.992,5.992,0,0,0-1.261-4.182q-1.267-1.366-4.366-1.366h-2a5.469,5.469,0,0,0-4.222,1.489,5.78,5.78,0,0,0-1.366,4.059V195.68h-2.934V175.537h2.934v2.694a5.085,5.085,0,0,1,1.918-1.875,6.84,6.84,0,0,1,3.586-.819h2.08Q702.757,175.537,704.732,177.6Z" transform="translate(-317.549 -167.384)" fill="#4f5560"/>
        <path id="Path_21" data-name="Path 21" d="M721.017,176.012a5.386,5.386,0,0,1,2.3,1.567,6.316,6.316,0,0,1,1.265,2.61,15.161,15.161,0,0,1,.385,3.608v4.038a13.942,13.942,0,0,1-.385,3.485,5.772,5.772,0,0,1-1.265,2.465,5.376,5.376,0,0,1-2.3,1.472,10.968,10.968,0,0,1-3.5.486H714.9a11.134,11.134,0,0,1-3.548-.486,5.387,5.387,0,0,1-2.307-1.472,5.817,5.817,0,0,1-1.261-2.465,13.865,13.865,0,0,1-.39-3.485V183.8a15.078,15.078,0,0,1,.39-3.608,6.366,6.366,0,0,1,1.261-2.61,5.408,5.408,0,0,1,2.325-1.567,10.275,10.275,0,0,1,3.529-.53h2.61A10.077,10.077,0,0,1,721.017,176.012Zm-1.3,16.96a3.069,3.069,0,0,0,1.512-.855,3.554,3.554,0,0,0,.814-1.65,11.843,11.843,0,0,0,.245-2.632V183.8a14.806,14.806,0,0,0-.224-2.832,3.729,3.729,0,0,0-.8-1.774,3.059,3.059,0,0,0-1.506-.915,8.573,8.573,0,0,0-2.325-.268h-2.448a8.936,8.936,0,0,0-2.382.268,2.943,2.943,0,0,0-1.51.915,3.872,3.872,0,0,0-.775,1.774,14.931,14.931,0,0,0-.224,2.832v4.038a11.841,11.841,0,0,0,.247,2.632,3.541,3.541,0,0,0,.814,1.65,3.07,3.07,0,0,0,1.51.855,9.431,9.431,0,0,0,2.321.245h2.448A9.249,9.249,0,0,0,719.712,192.972Z" transform="translate(-309.151 -167.408)" fill="#4f5560"/>
        <path id="Path_22" data-name="Path 22" d="M729.68,198.11h-2.934v-28.3h2.934Z" transform="translate(-300.932 -169.815)" fill="#4f5560"/>
        <path id="Path_23" data-name="Path 23" d="M749.546,176.012a5.387,5.387,0,0,1,2.3,1.567,6.336,6.336,0,0,1,1.265,2.61,15.171,15.171,0,0,1,.385,3.608v4.038a13.951,13.951,0,0,1-.385,3.485,5.79,5.79,0,0,1-1.265,2.465,5.376,5.376,0,0,1-2.3,1.472,10.968,10.968,0,0,1-3.5.486h-2.61a11.125,11.125,0,0,1-3.546-.486,5.393,5.393,0,0,1-2.308-1.472,5.816,5.816,0,0,1-1.261-2.465,13.861,13.861,0,0,1-.391-3.485V183.8a15.074,15.074,0,0,1,.391-3.608,6.366,6.366,0,0,1,1.261-2.61,5.409,5.409,0,0,1,2.325-1.567,10.275,10.275,0,0,1,3.529-.53h2.61A10.078,10.078,0,0,1,749.546,176.012Zm-1.305,16.96a3.068,3.068,0,0,0,1.512-.855,3.541,3.541,0,0,0,.814-1.65,11.847,11.847,0,0,0,.245-2.632V183.8a14.94,14.94,0,0,0-.222-2.832,3.743,3.743,0,0,0-.8-1.774,3.052,3.052,0,0,0-1.506-.915,8.566,8.566,0,0,0-2.325-.268h-2.448a8.936,8.936,0,0,0-2.382.268,2.943,2.943,0,0,0-1.51.915,3.857,3.857,0,0,0-.775,1.774,14.932,14.932,0,0,0-.224,2.832v4.038a11.932,11.932,0,0,0,.245,2.632,3.555,3.555,0,0,0,.815,1.65,3.064,3.064,0,0,0,1.51.855,9.431,9.431,0,0,0,2.321.245h2.448A9.248,9.248,0,0,0,748.241,192.972Z" transform="translate(-297.031 -167.408)" fill="#4f5560"/>
        <path id="Path_24" data-name="Path 24" d="M765.484,175.51a11.461,11.461,0,0,1,2.365.205,4.852,4.852,0,0,1,1.527.57,3.394,3.394,0,0,1,.942.836,6.851,6.851,0,0,1,.591.959v-2.57h2.934v21.123a10.492,10.492,0,0,1-.429,3.075,5.947,5.947,0,0,1-3.871,4.015,11.223,11.223,0,0,1-3.814.573H763q-3.994,0-5.706-1.366a4.827,4.827,0,0,1-1.713-4.015h2.934a2.558,2.558,0,0,0,.96,2.137,6.046,6.046,0,0,0,3.568.758h2.689q2.9,0,4.038-1.375a5.778,5.778,0,0,0,1.143-3.8v-3.31a6.536,6.536,0,0,1-.613.836,3.505,3.505,0,0,1-.959.752,6.135,6.135,0,0,1-1.489.553,9.5,9.5,0,0,1-2.243.222H763q-4.644,0-6.543-2.241t-1.9-6.608v-2.364q0-4.77,2.059-6.866t6.546-2.1Zm-2.241,2.448a10.039,10.039,0,0,0-2.689.306,3.555,3.555,0,0,0-1.774,1.06,4.586,4.586,0,0,0-.982,2.018,13.976,13.976,0,0,0-.3,3.18V186.8a12.8,12.8,0,0,0,.3,3.016,4.518,4.518,0,0,0,1,1.979,3.889,3.889,0,0,0,1.774,1.081,9.469,9.469,0,0,0,2.672.325h1.874a8.252,8.252,0,0,0,2.855-.429,4.142,4.142,0,0,0,1.817-1.261,4.941,4.941,0,0,0,.938-2.063,13.244,13.244,0,0,0,.262-2.771V184.36a13.464,13.464,0,0,0-.245-2.716,4.813,4.813,0,0,0-.876-2.018,3.944,3.944,0,0,0-1.773-1.244,8.362,8.362,0,0,0-2.9-.425Z" transform="translate(-289.117 -167.396)" fill="#4f5560"/>
        <path id="Path_25" data-name="Path 25" d="M783.327,191.888l6.157-16.351H792.5l-7.054,19.084a16.3,16.3,0,0,1-4.79,7.194,10.725,10.725,0,0,1-6.953,2.469v-2.53a7.175,7.175,0,0,0,2.754-.547,10.2,10.2,0,0,0,4.281-3.345,8.057,8.057,0,0,0,1.161-2.142h-.245l-7.54-20.182h3.095Z" transform="translate(-280.984 -167.384)" fill="#4f5560"/>
        <path id="Path_26" data-name="Path 26" d="M819.27,171.528a6.126,6.126,0,0,1,2.388,5.342,14.75,14.75,0,0,1-.185,2.57,7.45,7.45,0,0,1-.507,1.73,3.459,3.459,0,0,1-.8,1.143,5.1,5.1,0,0,1-1.083.754,12.45,12.45,0,0,1,1.328.634,4.217,4.217,0,0,1,1.3,1.138,6.581,6.581,0,0,1,1,1.958,9.438,9.438,0,0,1,.408,3,10.808,10.808,0,0,1-.63,3.954,5.967,5.967,0,0,1-1.9,2.566,7.731,7.731,0,0,1-3.118,1.389,20.309,20.309,0,0,1-4.3.406H801.515v-28.3h10.277Q816.887,169.815,819.27,171.528Zm-6.3,10.277a14.766,14.766,0,0,0,2.465-.184,4.572,4.572,0,0,0,1.814-.675,2.985,2.985,0,0,0,1.1-1.344,5.641,5.641,0,0,0,.369-2.2,4.433,4.433,0,0,0-1.307-3.485q-1.306-1.163-4.487-1.161h-8.478V181.8Zm1.305,13.372a6.923,6.923,0,0,0,4.423-1.2q1.492-1.2,1.489-4.138,0-2.857-1.466-3.975a7.7,7.7,0,0,0-4.652-1.121h-9.619v10.438Z" transform="translate(-269.169 -169.815)" fill="#4f5560"/>
        <path id="Path_27" data-name="Path 27" d="M825.3,193.762q-1.834-1.958-1.835-5.95V175.537H826.4v12.48a5.3,5.3,0,0,0,1.138,3.81q1.143,1.163,4.036,1.16h1.753a6.633,6.633,0,0,0,4.3-1.221,4.584,4.584,0,0,0,1.489-3.749v-12.48h2.934V195.68H839.2v-2.325a10.542,10.542,0,0,1-.754.838,3.95,3.95,0,0,1-1.1.752,7.78,7.78,0,0,1-1.611.551,9.984,9.984,0,0,1-2.285.224h-1.835Q827.131,195.719,825.3,193.762Z" transform="translate(-259.845 -167.384)" fill="#4f5560"/>
        <path id="Path_28" data-name="Path 28" d="M847.173,172.753h-2.934v-2.938h2.934Zm0,25.357h-2.934V177.968h2.934Z" transform="translate(-251.019 -169.815)" fill="#4f5560"/>
        <path id="Path_29" data-name="Path 29" d="M857.044,198.11H854.11v-28.3h2.934Z" transform="translate(-246.826 -169.815)" fill="#4f5560"/>
        <path id="Path_30" data-name="Path 30" d="M865.41,195.812a9.814,9.814,0,0,1-1.914-6.454v-2.767q0-4.277,1.952-6.494t6.363-2.22h2.364a12.05,12.05,0,0,1,2.283.184,6.777,6.777,0,0,1,1.611.507,3.544,3.544,0,0,1,1.081.775,6.736,6.736,0,0,1,.735.977V169.815h2.934v28.257h-2.934v-2.2a10.258,10.258,0,0,1-.714.792,4.115,4.115,0,0,1-1.02.714,6.44,6.44,0,0,1-1.59.53,12.3,12.3,0,0,1-2.469.2h-2.364Q867.326,198.11,865.41,195.812Zm14.309-11.827a4.462,4.462,0,0,0-.893-1.958,4.215,4.215,0,0,0-1.755-1.225,7.858,7.858,0,0,0-2.811-.425H872.3q-3.14,0-4.505,1.488a6.805,6.805,0,0,0-1.366,4.708v2.689q0,3.554,1.428,4.957a5.742,5.742,0,0,0,4.2,1.406h2.119a5.651,5.651,0,0,0,4.363-1.55c.955-1.034,1.426-2.689,1.426-4.974v-2.528A12.345,12.345,0,0,0,879.719,183.985Z" transform="translate(-242.839 -169.815)" fill="#4f5560"/>
        <path id="Path_31" data-name="Path 31" d="M887.933,195.331a5.12,5.12,0,0,1-2.3-1.349,5.922,5.922,0,0,1-1.4-2.566,14.8,14.8,0,0,1-.469-4.059V183.85q0-4.4,1.812-6.4t5.527-2H893.7q3.83,0,5.728,1.835a6.767,6.767,0,0,1,1.9,5.1v3.836H886.448v2.365a4.8,4.8,0,0,0,1.121,3.546,5,5,0,0,0,3.608,1.1h2.61a6.253,6.253,0,0,0,3.747-.836,2.986,2.986,0,0,0,1.06-2.5v-.613h2.733v.853a5.423,5.423,0,0,1-.591,2.632,4.759,4.759,0,0,1-1.611,1.734,7.169,7.169,0,0,1-2.4.938,15.158,15.158,0,0,1-3.018.284h-2.609A11.656,11.656,0,0,1,887.933,195.331Zm3.244-17.31a7.464,7.464,0,0,0-2.347.308,2.9,2.9,0,0,0-1.446,1,4.159,4.159,0,0,0-.735,1.774,14.823,14.823,0,0,0-.2,2.67h12.146a21.416,21.416,0,0,0-.14-2.632,3.949,3.949,0,0,0-.635-1.772,2.813,2.813,0,0,0-1.445-1.02,8.358,8.358,0,0,0-2.588-.325Z" transform="translate(-234.232 -167.421)" fill="#4f5560"/>
        <path id="Path_32" data-name="Path 32" d="M918.493,181.449a4.36,4.36,0,0,0-.713-1.852,3.58,3.58,0,0,0-1.59-1.244,7.2,7.2,0,0,0-2.794-.45h-1.506a6.139,6.139,0,0,0-4.589,1.572,6.029,6.029,0,0,0-1.527,4.384V195.68H902.84V175.537h2.894v2.448a6.084,6.084,0,0,1,.754-.858,4.666,4.666,0,0,1,1.181-.792,7.76,7.76,0,0,1,1.757-.57,11.816,11.816,0,0,1,2.5-.228H913.4a11.129,11.129,0,0,1,4.366.714,5.717,5.717,0,0,1,3.586,4.507,18.169,18.169,0,0,1,.245,2.976H918.66A14.981,14.981,0,0,0,918.493,181.449Z" transform="translate(-226.125 -167.384)" fill="#4f5560"/>
        <path id="Path_33" data-name="Path 33" d="M924.6,189.276v.245q0,3.71,4.4,3.709h4.773a5.7,5.7,0,0,0,2.972-.631c.68-.42,1.022-1.3,1.022-2.632a3.334,3.334,0,0,0-.754-2.426,4.076,4.076,0,0,0-2.794-.792l-6.769-.165a6.136,6.136,0,0,1-3.915-1.305,4.418,4.418,0,0,1-1.422-3.546v-.815a6.145,6.145,0,0,1,.363-2.142,4.564,4.564,0,0,1,1.12-1.73,5.334,5.334,0,0,1,1.941-1.164,8.145,8.145,0,0,1,2.771-.43h4.484a11.336,11.336,0,0,1,3.525.469,5.978,5.978,0,0,1,2.264,1.288,4.611,4.611,0,0,1,1.227,1.913,7.426,7.426,0,0,1,.363,2.325v.406h-2.527v-.368a3.284,3.284,0,0,0-1.037-2.566q-1.045-.938-3.853-.936H928.27a5.6,5.6,0,0,0-1.818.245,2.872,2.872,0,0,0-1.121.653,2.079,2.079,0,0,0-.551.976,5.228,5.228,0,0,0-.14,1.221,3.021,3.021,0,0,0,.731,2.348,4.4,4.4,0,0,0,2.693.67l6.241.167a6.587,6.587,0,0,1,4.522,1.485,5.079,5.079,0,0,1,1.468,3.853v.735a5.115,5.115,0,0,1-1.569,3.894q-1.568,1.49-5.28,1.487h-4.4q-3.792,0-5.382-1.65a6.052,6.052,0,0,1-1.59-4.384v-.406Z" transform="translate(-217.956 -167.421)" fill="#4f5560"/>
      </g>
      <path id="Path_34" data-name="Path 34" d="M427.223,105.621h96.964v12.537H485.394v62.747H466.005V118.158H427.223Z" transform="translate(-427.223 -56.217)" fill="url(#linear-gradient-7)"/>
      <path id="Path_35" data-name="Path 35" d="M490.265,133.159c0-13.128,11.407-13.128,22.815-13.128h25.1c11.4,0,22.817,0,22.817,13.128v18.233H508.511v9.134c0,3.437,2.864,3.437,5.712,3.437h44.491v10.82H513.081c-11.408,0-22.815,0-22.815-13.131Zm52.459,7.4v-6.288c0-3.4-2.85-3.4-5.684-3.4H514.223c-2.848,0-5.712,0-5.712,3.4v6.288Z" transform="translate(-400.442 -50.095)" fill="url(#linear-gradient-8)"/>
      <path id="Path_36" data-name="Path 36" d="M546.4,133.159c0-13.128,11.435-13.128,22.815-13.128h43.35v10.844H570.345c-2.85,0-5.682,0-5.682,3.4v26.251c0,3.437,2.833,3.437,5.682,3.437h42.221v10.82h-43.35c-11.38,0-22.815,0-22.815-13.131Z" transform="translate(-376.595 -50.095)" fill="url(#linear-gradient-8)"/>
      <path id="Path_37" data-name="Path 37" d="M599.677,105.621h18.262v20.532H647.6c11.42,0,22.814,0,22.814,13.128v41.625H652.164V140.4c0-3.4-2.851-3.4-5.711-3.4H617.939v43.909H599.677Z" transform="translate(-353.962 -56.217)" fill="url(#linear-gradient-7)"/>
      <path id="Path_38" data-name="Path 38" d="M655.621,105.621h61.566c13.692,0,27.385,0,27.385,15.4v6.839c0,6.838-4.554,10.264-9.12,11.42,4.567,1.117,10.25,3.4,10.25,11.394v14.817c0,15.414-13.68,15.414-27.372,15.414H655.621Zm62.709,27.963c3.415,0,6.853,0,6.853-4.005v-7.418c0-4-3.438-4-6.853-4H675v15.426Zm1.157,34.767c3.4,0,6.839,0,6.839-3.988V150.1c0-3.961-3.438-3.961-6.839-3.961H675v22.216Z" transform="translate(-330.196 -56.217)" fill="url(#linear-gradient-11)"/>
      <path id="Path_39" data-name="Path 39" d="M724.447,133.159c0-13.128,11.407-13.128,22.8-13.128h18.26v10.844h-17.1c-2.851,0-5.728,0-5.728,3.4v40.507H724.447Z" transform="translate(-300.958 -50.095)" fill="url(#linear-gradient-12)"/>
      <path id="Path_40" data-name="Path 40" d="M760.115,120.031h18.25v54.753h-18.25Z" transform="translate(-285.806 -50.095)" fill="url(#linear-gradient-12)"/>
      <path id="Path_41" data-name="Path 41" d="M779.123,133.159c0-13.128,11.384-13.128,22.8-13.128h43.35v10.844h-42.22c-2.85,0-5.7,0-5.7,3.4v26.251c0,3.437,2.847,3.437,5.7,3.437h42.22v10.82h-43.35c-11.42,0-22.8,0-22.8-13.131Z" transform="translate(-277.731 -50.095)" fill="url(#linear-gradient-12)"/>
      <path id="Path_42" data-name="Path 42" d="M889.8,163.964h46.748c2.877,0,5.71,0,5.71-3.437v-5.7c0-3.438-2.834-3.438-5.71-3.438H912.59c-11.38,0-22.787,0-22.787-13.113v-5.121c0-13.128,11.407-13.128,22.787-13.128h43.364v10.844H913.76c-2.86,0-5.724,0-5.724,3.4v2.861c0,3.427,2.864,3.427,5.724,3.427h23.961c11.393,0,22.787,0,22.787,13.08v8.009c0,13.131-11.394,13.131-22.787,13.131H889.8Z" transform="translate(-230.713 -50.095)" fill="url(#linear-gradient-12)"/>
      <g id="Group_2" data-name="Group 2" transform="translate(457.713)">
        <path id="Path_43" data-name="Path 43" d="M801.849,87.446a9.848,9.848,0,0,0-8.805,5.5L768.037,82.2a8.274,8.274,0,0,0,.165-1.445,9.94,9.94,0,1,0-1.567,5.285l25.4,10.913c0,.137-.04.234-.04.331a9.8,9.8,0,0,0,1.389,5l-12.511,10.542a9.815,9.815,0,1,0,3.648,7.581,9.727,9.727,0,0,0-1.1-4.39l12.755-10.706a9.7,9.7,0,0,0,5.671,1.844,9.853,9.853,0,0,0,0-19.707Zm-43.5-1.307a5.367,5.367,0,1,1,5.4-5.382A5.386,5.386,0,0,1,758.35,86.14ZM774.657,125.8a5.387,5.387,0,1,1,5.381-5.4A5.381,5.381,0,0,1,774.657,125.8Zm27.193-23.12a5.381,5.381,0,1,1,5.382-5.394A5.372,5.372,0,0,1,801.849,102.68Z" transform="translate(-748.467 -70.947)" fill="url(#linear-gradient-16)"/>
      </g>
      <rect id="Rectangle_3" data-name="Rectangle 3" width="17.064" height="75.644" transform="translate(576.576 49.238)" fill="url(#linear-gradient-17)"/>
      <path id="Path_44" data-name="Path 44" d="M898.853,174.685H875.282l-27.113-24.293c-1.512-1.284-2.255-2.492-2.255-3.679,0-1.252.841-2.68,2.557-4.223l25.584-22.555H897.2l-30,26.778Z" transform="translate(-249.357 -50.136)" fill="url(#linear-gradient-18)"/>
    </g>
  </g>
</svg>
